{
    "relationships": [
        {
            "relationshipId": 1,
            "relationshipName": "service",
            "relationshipNameCapitalized": "Service",
            "relationshipFieldName": "service",
            "otherEntityName": "service",
            "relationshipType": "one-to-one",
            "otherEntityNameCapitalized": "Service",
            "ownerSide": true
        },
        {
            "relationshipId": 2,
            "relationshipName": "trainer",
            "relationshipNameCapitalized": "Trainer",
            "relationshipFieldName": "trainer",
            "otherEntityName": "trainer",
            "relationshipType": "many-to-one",
            "otherEntityNameCapitalized": "Trainer",
            "otherEntityField": "id"
        }
    ],
    "fields": [
        {
            "fieldId": 1,
            "fieldName": "name",
            "fieldType": "String",
            "fieldIsEnum": false,
            "fieldNameCapitalized": "Name",
            "fieldNameUnderscored": "name",
            "fieldInJavaBeanMethod": "Name",
            "fieldValidate": true,
            "fieldValidateRules": [
                "required"
            ]
        },
        {
            "fieldId": 2,
            "fieldName": "cost",
            "fieldType": "BigDecimal",
            "fieldIsEnum": false,
            "fieldNameCapitalized": "Cost",
            "fieldNameUnderscored": "cost",
            "fieldInJavaBeanMethod": "Cost",
            "fieldValidate": true,
            "fieldValidateRules": [
                "required"
            ]
        }
    ],
    "fieldsContainOwnerManyToMany": false,
    "fieldsContainOwnerOneToOne": true,
    "fieldsContainOneToMany": false,
    "fieldsContainLocalDate": false,
    "fieldsContainCustomTime": false,
    "fieldsContainBigDecimal": true,
    "fieldsContainDateTime": false,
    "fieldsContainDate": false,
    "changelogDate": "20150901001253",
    "dto": "no",
    "pagination": "no",
    "validation": true
}