{
    "relationships": [
        {
            "relationshipId": 1,
            "relationshipName": "user",
            "relationshipNameCapitalized": "User",
            "relationshipFieldName": "user",
            "otherEntityName": "user",
            "relationshipType": "many-to-one",
            "otherEntityNameCapitalized": "User",
            "otherEntityField": "id"
        }
    ],
    "fields": [
        {
            "fieldId": 1,
            "fieldName": "trainerId",
            "fieldType": "Long",
            "fieldIsEnum": false,
            "fieldNameCapitalized": "TrainerId",
            "fieldNameUnderscored": "trainer_id",
            "fieldInJavaBeanMethod": "TrainerId",
            "fieldValidate": true,
            "fieldValidateRules": [
                "required"
            ]
        },
        {
            "fieldId": 2,
            "fieldName": "firstName",
            "fieldType": "String",
            "fieldIsEnum": false,
            "fieldNameCapitalized": "FirstName",
            "fieldNameUnderscored": "first_name",
            "fieldInJavaBeanMethod": "FirstName",
            "fieldValidate": true,
            "fieldValidateRules": [
                "required"
            ]
        },
        {
            "fieldId": 3,
            "fieldName": "lastName",
            "fieldType": "String",
            "fieldIsEnum": false,
            "fieldNameCapitalized": "LastName",
            "fieldNameUnderscored": "last_name",
            "fieldInJavaBeanMethod": "LastName",
            "fieldValidate": true,
            "fieldValidateRules": [
                "required"
            ]
        },
        {
            "fieldId": 4,
            "fieldName": "address",
            "fieldType": "String",
            "fieldIsEnum": false,
            "fieldNameCapitalized": "Address",
            "fieldNameUnderscored": "address",
            "fieldInJavaBeanMethod": "Address",
            "fieldValidate": false
        },
        {
            "fieldId": 5,
            "fieldName": "phone",
            "fieldType": "Integer",
            "fieldIsEnum": false,
            "fieldNameCapitalized": "Phone",
            "fieldNameUnderscored": "phone",
            "fieldInJavaBeanMethod": "Phone",
            "fieldValidate": true,
            "fieldValidateRules": [
                "required",
                "min"
            ],
            "fieldValidateRulesMin": "10"
        }
    ],
    "fieldsContainOwnerManyToMany": false,
    "fieldsContainOwnerOneToOne": false,
    "fieldsContainOneToMany": false,
    "fieldsContainLocalDate": false,
    "fieldsContainCustomTime": false,
    "fieldsContainBigDecimal": false,
    "fieldsContainDateTime": false,
    "fieldsContainDate": false,
    "changelogDate": "20150831234906",
    "dto": "no",
    "pagination": "no",
    "validation": true
}